{
  "AD" : "Andorra",
  "AT" : "Austria",
  "AT-02" : "Carinthia",
  "AT-02-01" : "Glocknergruppe",
  "AT-02-01-01" : "Glocknergruppe",
  "AT-02-01-02" : "Goldberg Group",
  "AT-02-02" : "Schobergruppe",
  "AT-02-03" : "Ankogelgruppe",
  "AT-02-03-01" : "Ankogelgruppe",
  "AT-02-03-02" : "Hafner Group",
  "AT-02-04" : "Nockberge",
  "AT-02-04-01" : "Nockberge",
  "AT-02-04-02" : "Southern Nockberge",
  "AT-02-05" : "Gurktaler Alpen",
  "AT-02-05-01" : "Gurktaler Alpen",
  "AT-02-05-02" : "Gurktal Alps South",
  "AT-02-06" : "Saualpe",
  "AT-02-07" : "Packalpe",
  "AT-02-08" : "Koralpe",
  "AT-02-09" : "Kreuzeckgruppe",
  "AT-02-10" : "Lienzer Dolomiten",
  "AT-02-11" : "Gailtaler Alpen West",
  "AT-02-12" : "Gailtaler Alpen Mitte",
  "AT-02-12-01" : "Gailtaler Alpen Mitte",
  "AT-02-12-02" : "Goldeck Group",
  "AT-02-13" : "Villacher Alpe",
  "AT-02-14" : "Karnische Alpen West",
  "AT-02-15" : "Karnische Alpen Mitte",
  "AT-02-16" : "Karnische Alpen Ost",
  "AT-02-17" : "Karawanken West",
  "AT-02-18" : "Karawanken Mitte",
  "AT-02-19" : "Karawanken Ost",
  "AT-03" : "Lower Austria",
  "AT-03-01" : "Ybbstaler Alpen",
  "AT-03-02" : "Türnitzer Alpen",
  "AT-03-03" : "Gutensteiner Alpen",
  "AT-03-04" : "Rax - Schneeberggebiet",
  "AT-03-05" : "Semmering - Wechselgebiet",
  "AT-03-06" : "Gippel - Göllergebiet",
  "AT-04" : "Upper Austria",
  "AT-04-01" : "Dachstein, Gosaukamm",
  "AT-04-02" : "Kalmberg, Katergebirge",
  "AT-04-03" : "Totes Gebirge",
  "AT-04-04" : "Phyrgas, Haller Mauern",
  "AT-04-05" : "Zimnitzmassiv, Höllengbirge",
  "AT-04-06" : "Traunstein, Eibenberg",
  "AT-04-07" : "Kasbergblock",
  "AT-04-08" : "Sengsengebirge",
  "AT-04-09" : "Ennstaler Voralpen",
  "AT-05" : "Salzburg",
  "AT-05-01" : "Nockberge",
  "AT-05-02" : "Niedere Tauern Süd",
  "AT-05-03" : "Ankogelgruppe, Muhr",
  "AT-05-04" : "Niedere Tauern Alpenhauptkamm",
  "AT-05-05" : "Goldberggruppe Alpenhauptkamm",
  "AT-05-06" : "Glocknergruppe Alpenhauptkamm",
  "AT-05-07" : "Großvenedigergruppe Alpenhauptkamm",
  "AT-05-08" : "Niedere Tauern Nord",
  "AT-05-09" : "Goldberggruppe Nord",
  "AT-05-10" : "Glocknergruppe Nord",
  "AT-05-11" : "Großvenedigergruppe Nord",
  "AT-05-12" : "Pongauer Grasberge",
  "AT-05-13" : "Dientner Grasberge",
  "AT-05-14" : "Kitzbüheler Alpen, Glemmtal",
  "AT-05-15" : "Oberpinzgauer Grasberge",
  "AT-05-16" : "Tennengebirge, Gosaukamm",
  "AT-05-17" : "Steinernes Meer, Hochkönig, Hagengebirge, Göllstock",
  "AT-05-18" : "Loferer und Leoganger Steinberge",
  "AT-05-19" : "Osterhorngruppe, Gamsfeldgruppe",
  "AT-05-20" : "Untersbergstock",
  "AT-05-21" : "Chiemgauer Alpen, Heutal, Reiteralpe",
  "AT-06" : "Styria",
  "AT-06-01" : "Dachsteingebiet",
  "AT-06-02" : "Totes Gebirge",
  "AT-06-03" : "Ennstaler Alpen",
  "AT-06-04" : "Schladminger Tauern",
  "AT-06-04-01" : "Schladminger Tauern North",
  "AT-06-04-02" : "Schladminger Tauern South",
  "AT-06-05" : "Nördliche Wölzer Tauern",
  "AT-06-06" : "Rottenmanner Tauern",
  "AT-06-07" : "Südliche Wölzer Tauern",
  "AT-06-08" : "Seckauer Tauern",
  "AT-06-09" : "Eisenerzer Alpen",
  "AT-06-10" : "Hochschwabgebiet",
  "AT-06-11" : "Mürzsteger Alpen",
  "AT-06-12" : "Mürztaler Alpen",
  "AT-06-13" : "Östliche Fischbacher Alpen und Wechselgebiet",
  "AT-06-14" : "Westliche Fischbacher Alpen und Grazer Bergland",
  "AT-06-15" : "Stub- und Gleinalpe",
  "AT-06-16" : "Koralpe",
  "AT-06-17" : "Seetaler Alpen",
  "AT-06-18" : "Gurktaler Alpen",
  "AT-07" : "Tyrol",
  "AT-07-01" : "Alpes de l'Allgäu",
  "AT-07-02" : "Alpes orientales du Lechtal - Alpes d'Ammergau",
  "AT-07-02-01" : "Ammergau Alps",
  "AT-07-02-02" : "Eastern Lechtal Alps",
  "AT-07-03" : "Montagnes Mieming",
  "AT-07-04" : "Montagnes Karwendel",
  "AT-07-04-01" : "Western Karwendel Mountains",
  "AT-07-04-02" : "Eastern Karwendel Mountains",
  "AT-07-05" : "Alpes de Brandenberg",
  "AT-07-06" : "Montagnes Wilder Kaiser - Alpes de Waidring",
  "AT-07-07" : "Alpes occidentales du Lechtal",
  "AT-07-08" : "Alpes centrales du Lechtal ",
  "AT-07-09" : "Montagnes Grieskogel",
  "AT-07-10" : "Montagnes occidentales du Verwall",
  "AT-07-11" : "Montagnes orientales du Verwall",
  "AT-07-12" : "Silvretta",
  "AT-07-13" : "Montagnes Samnaun",
  "AT-07-14" : "Alpes du nord de l'Oetz et du Stubai",
  "AT-07-14-01" : "Kauner Ridge",
  "AT-07-14-02" : "Kühtai - Geigen Ridge",
  "AT-07-14-03" : "Sellrain - Alpein Mountains",
  "AT-07-14-04" : "Kalkkögel",
  "AT-07-14-05" : "Serles Ridge",
  "AT-07-15" : "Alpes occidentales du Tux",
  "AT-07-16" : "Alpes orientales du Tux",
  "AT-07-17" : "Alpes occidentales du Kitzbühel",
  "AT-07-17-01" : "Alpes occidentales du Kitzbühel",
  "AT-07-17-02" : "Central Kitzbühel Alps",
  "AT-07-18" : "Alpes orientales du Kitzbühel",
  "AT-07-19" : "Chaîne de Glockturm",
  "AT-07-20" : "Chaîne de Weißkugel",
  "AT-07-21" : "Chaîne de Gurgl",
  "AT-07-22" : "Alpes centrales du Stubai",
  "AT-07-23" : "Alpes du nord du Zillertal",
  "AT-07-24" : "Chaîne de Venediger",
  "AT-07-25" : "Chaîne de Lasörling",
  "AT-07-26" : "Chaîne de Glockner",
  "AT-07-27" : "Alpes orientales du Defereggen",
  "AT-07-28" : "Montagnes Schober",
  "AT-07-29" : "Dolomites de Lienz",
  "AT-08" : "Vorarlberg",
  "AT-08-01" : "Bregenzerwald Mountains",
  "AT-08-02" : "Allgäu Alps",
  "AT-08-03-01" : "Lechtaler Alps",
  "AT-08-03-02" : "Lechquellen Mountains / Lechtaler Alps",
  "AT-08-03" : "Lechquellen Mountains / Lechtaler Alps",
  "AT-08-04" : "Verwall",
  "AT-08-05-01" : "Rätikon East",
  "AT-08-05-02" : "Rätikon",
  "AT-08-05" : "Rätikon",
  "AT-08-06" : "Silvretta",
  "AT-08-07" : "Lechtaler Alps",
  "AT-08-08" : "Rätikon East",
  "AT-08-09" : "Pre Alps",
  "AU" : "Australia",
  "CA" : "Canada",
  "CH" : "Switzerland",
  "CH-1111" : "Waadtländer Voralpen",
  "CH-1112" : "Pays d'Enhaut",
  "CH-1113" : "Aigle-Leysin",
  "CH-1114" : "Bex-Villars",
  "CH-1121" : "Jaun",
  "CH-1122" : "Gruyère",
  "CH-1211" : "westliche Berner Voralpen",
  "CH-1212" : "östliche Berner Voralpen",
  "CH-1213" : "Hohgant",
  "CH-1221" : "Niedersimmental",
  "CH-1222" : "Gstaad",
  "CH-1223" : "Wildhorn",
  "CH-1224" : "Lenk",
  "CH-1225" : "Iffigen",
  "CH-1226" : "Adelboden",
  "CH-1227" : "Engstligen",
  "CH-1228" : "Obersimmental",
  "CH-1231" : "Kandersteg",
  "CH-1232" : "Blüemlisalp",
  "CH-1233" : "Lauterbrunnen",
  "CH-1234" : "Jungfrau - Schilthorn",
  "CH-1241" : "Brienz-Interlaken",
  "CH-1242" : "Grindelwald",
  "CH-1243" : "Schreckhorn",
  "CH-1244" : "Hasliberg - Rosenlaui",
  "CH-1245" : "Guttannen",
  "CH-1246" : "Gadmertal",
  "CH-1247" : "Grimselpass",
  "CH-1311" : "Vouvry",
  "CH-1312" : "Monthey-Val d'Illiez",
  "CH-2111" : "Pilatus",
  "CH-2112" : "Schwarzenberg",
  "CH-2121" : "Glaubenberg",
  "CH-2122" : "Engelberg",
  "CH-2123" : "Melchtal",
  "CH-2124" : "Gersau",
  "CH-2131" : "Rothenthurm",
  "CH-2132" : "Ybrig",
  "CH-2133" : "Stoos",
  "CH-2134" : "Bisistal",
  "CH-2211" : "Schächental",
  "CH-2212" : "Uri Rot Stock",
  "CH-2221" : "Meiental",
  "CH-2222" : "Maderanertal",
  "CH-2223" : "nördliches Urseren",
  "CH-2224" : "südliches Urseren",
  "CH-3111" : "Glarus Nord",
  "CH-3112" : "Glarus Süd-Grosstal",
  "CH-3113" : "Glarus Süd-Sernftal",
  "CH-3114" : "Glarus Mitte",
  "CH-3211" : "Appenzeller Alpen",
  "CH-3221" : "Toggenburg",
  "CH-3222" : "Alpstein - Alvier",
  "CH-3223" : "Flumserberg",
  "CH-3224" : "Sarganserland",
  "CH-3311" : "Liechtenstein",
  "CH-4111" : "Emosson",
  "CH-4112" : "Génépi",
  "CH-4113" : "Val d'Entremont-Val Ferret",
  "CH-4114" : "Conthey-Fully",
  "CH-4115" : "Martigny-Verbier",
  "CH-4116" : "Haut Val de Bagnes",
  "CH-4121" : "Montana",
  "CH-4122" : "Val d'Hérens",
  "CH-4123" : "Arolla",
  "CH-4124" : "Val d'Anniviers",
  "CH-4125" : "Mountet",
  "CH-4211" : "Leukerbad - Lötschental",
  "CH-4212" : "Turtmanntal",
  "CH-4213" : "Konkordia Gebiet",
  "CH-4214" : "Riederalp",
  "CH-4215" : "Leuk",
  "CH-4221" : "untere Vispertäler",
  "CH-4222" : "Zermatt",
  "CH-4223" : "Saas Fee",
  "CH-4224" : "Monte Rosa",
  "CH-4225" : "Mattmark",
  "CH-4231" : "nördliches Simplon Gebiet",
  "CH-4232" : "südliches Simplon Gebiet",
  "CH-4241" : "Reckingen",
  "CH-4242" : "Binntal",
  "CH-4243" : "nördliches Obergoms",
  "CH-4244" : "südliches Obergoms",
  "CH-5111" : "nördliches Prättigau",
  "CH-5112" : "südliches Prättigau",
  "CH-5113" : "westliche Silvretta",
  "CH-5121" : "Calanda",
  "CH-5122" : "Schanfigg",
  "CH-5123" : "Davos",
  "CH-5124" : "Flims",
  "CH-5211" : "nördliches Tujetsch",
  "CH-5212" : "südliches Tujetsch",
  "CH-5214" : "Obersaxen - Safiental",
  "CH-5215" : "Val Sumvitg",
  "CH-5216" : "Zervreila",
  "CH-5221" : "Domleschg - Lenzerheide",
  "CH-5222" : "Schams",
  "CH-5223" : "Rheinwald",
  "CH-5231" : "Albulatal",
  "CH-5232" : "Savognin",
  "CH-5233" : "Avers",
  "CH-5234" : "Bivio",
  "CH-6111" : "Bedrettotal",
  "CH-6112" : "obere Leventina",
  "CH-6113" : "Bleniotal",
  "CH-6114" : "obere Maggiatäler",
  "CH-6115" : "untere Leventina",
  "CH-6121" : "untere Maggiatäler",
  "CH-6122" : "Riviera",
  "CH-6131" : "Luganese",
  "CH-6132" : "Mendrisiotto",
  "CH-6211" : "alto Moesano",
  "CH-6212" : "basso Moesano",
  "CH-7111" : "Corvatsch",
  "CH-7112" : "Bernina",
  "CH-7113" : "Zuoz",
  "CH-7114" : "St. Moritz",
  "CH-7115" : "Val Chamuera",
  "CH-7121" : "Samnaun",
  "CH-7122" : "östliche Silvretta",
  "CH-7123" : "Sur Tasna",
  "CH-7124" : "Val Suot",
  "CH-7125" : "Val dal Spöl",
  "CH-7126" : "Val S-charl",
  "CH-7211" : "Bergell",
  "CH-7221" : "oberes Puschlav",
  "CH-7222" : "unteres Puschlav",
  "CH-7231" : "Münstertal",
  "CH-8111" : "Saint-Cergue",
  "CH-8112" : "Vallée de Joux",
  "CH-8113" : "Yverdon - Bevaix",
  "CH-8114" : "Val de Travers",
  "CH-8211" : "Val de Ruz - Colombier",
  "CH-8212" : "Biel- Neuenburg",
  "CH-8213" : "Vallon de Saint-Imier",
  "CH-8214" : "Moutier - Tavannes",
  "CH-8215" : "Thal",
  "CH-8216" : "Olten-Gösgen",
  "CH-8221" : "La Chaux-de-Fonds - Le Locle",
  "CH-8222" : "Franches-Montagnes",
  "CH-8223" : "Ajoie",
  "CH-8224" : "Delsberg– Bellelay",
  "CH-8225" : "Laufental",
  "CH-8226" : "Basel",
  "CH-8227" : "Oberes Baselbiet",
  "CH-8228" : "Rheinfelden",
  "CH-9111" : "westliches Mittelland",
  "CH-9211" : "zentrales Mittelland",
  "CH-9311" : "östliches Mittelland",
  "CZ" : "Czech Republic",
  "CZ-04" : "Krkonoše",
  "CZ-06" : "Jeseníky",
  "DE" : "Germany",
  "DE-BY" : "Bavaria",
  "BYALL" : "Allgäu Alps",
  "BYAMM" : "Ammergau Alps",
  "BYBGD" : "Berchtesgaden Alps",
  "BYBVA" : "Bavarian Prealps",
  "BYCHG" : "Chiemgau Alps",
  "BYWFK" : "Werdenfels Alps",
  "DE-BY-11" : "Allgäu  Prealps",
  "DE-BY-12" : "Allgäu  Alps",
  "DE-BY-20" : "Ammergau Alps",
  "DE-BY-30" : "Werdenfels Alps",
  "DE-BY-41" : "Bavarian Prealps West",
  "DE-BY-42" : "Bavarian Prealps Central",
  "DE-BY-43" : "Bavarian Prealps East",
  "DE-BY-51" : "Chiemgau Alps West",
  "DE-BY-52" : "Chiemgau Alps East",
  "DE-BY-60" : "Berchtesgaden Alps",
  "ES" : "Spain",
  "ES-AR" : "Aragón",
  "ES-CB" : "Cantabria",
  "ES-CB-14" : "Sierras del Cordel y Peña Labra",
  "ES-CL" : "Castilla y León",
  "ES-CL-13" : "Picos de Europa",
  "ES-CT" : "Catalunya",
  "ES-CT-L" : "Aran",
  "ES-CT-L-01" : "Nord et centre d'Aran",
  "ES-CT-L-02" : "Frontière du sud d'Aran",
  "ES-CT-L-03" : "Aran du Sud",
  "ES-MD" : "Madrid",
  "ES-MD-15" : "Sierra de Guadarrama",
  "EUREGIO" : "EUREGIO",
  "FI" : "Finland",
  "FI-01" : "Kilpisjärvi",
  "FI-02" : "Saariselkä",
  "FI-03" : "Ounas-Pallas",
  "FI-04" : "Ylläs-Levi",
  "FI-05" : "Luosto-Pyhä",
  "FI-06" : "Ruka",
  "FR" : "France",
  "FR-01" : "Chablais",
  "FR-02" : "Aravis",
  "FR-03" : "Mont-Blanc",
  "FR-04" : "Bauges",
  "FR-05" : "Beaufortain",
  "FR-06" : "Haute-Tarentaise",
  "FR-07" : "Chartreuse",
  "FR-08" : "Belledonne",
  "FR-09" : "Maurienne",
  "FR-10" : "Vanoise",
  "FR-11" : "Haute-Maurienne",
  "FR-12" : "Grandes-Rousses",
  "FR-13" : "Thabor",
  "FR-14" : "Vercors",
  "FR-15" : "Oisans",
  "FR-16" : "Pelvoux",
  "FR-17" : "Queyras",
  "FR-18" : "Devoluy",
  "FR-19" : "Champsaur",
  "FR-20" : "Embrunals-Parpaillon",
  "FR-21" : "Ubaye",
  "FR-22" : "Haut-Var/Haut-Verdon",
  "FR-23" : "Mercantour",
  "FR-40" : "Cinto-Rotondo",
  "FR-41" : "Renoso-Incudine",
  "FR-64" : "Pays-Basque",
  "FR-65" : "Aspe-Ossau",
  "FR-66" : "Haute-Bigorre",
  "FR-67" : "Aure-Louron",
  "FR-68" : "Louchonnais",
  "FR-69" : "Couserans",
  "FR-70" : "Haute-Ariege",
  "FR-72" : "Orlu St Barthelemy",
  "FR-73" : "Capcir-Puymorens",
  "FR-74" : "Cerdagne-Canigou",
  "GB" : "United Kingdom of Great Britain and Northern Ireland",
  "GB-SCT" : "Scotland",
  "GB-SCT-2" : "Northern Cairngorms",
  "GB-SCT-3" : "Lochaber",
  "GB-SCT-4" : "Glencoe",
  "GB-SCT-5" : "Southern Cairngorms",
  "GB-SCT-6" : "Creag Meagaidh",
  "GB-SCT-7" : "Torridon",
  "IS" : "Iceland",
  "IS-VN" : "Northern Westfjords",
  "IS-AF" : "East Fjords",
  "IS-SV" : "Southwest Corner",
  "IS-TN" : "Trollaskagi",
  "IT" : "Italy",
  "IT-21" : "Piemonte",
  "IT-21-CN-01" : "Alpi Cozie Sud di confine",
  "IT-21-CN-02" : "Alpi Marittime Occidentali",
  "IT-21-CN-03" : "Alpi Cozie Sud",
  "IT-21-CN-04" : "Alpi Marittime Orientali",
  "IT-21-CN-05" : "Alpi Liguri",
  "IT-21-TO-01" : "Alpi Graie di confine",
  "IT-21-TO-02" : "Alpi Cozie Nord di confine",
  "IT-21-TO-03" : "Alpi Graie",
  "IT-21-TO-04" : "Alpi Cozie",
  "IT-21-VB-01" : "Alpi Pennine di confine",
  "IT-21-VB-02" : "Alpi Lepontine Nord",
  "IT-21-VB-03" : "Alpi Lepontine Sud",
  "IT-21-VC-01" : "Alpi Pennine",
  "IT-23" : "Aosta",
  "IT-23-AO-01" : "A - SAINT-PIERRE SAINT-NICHOLAS",
  "IT-23-AO-02" : "A - INTROD ARVIER",
  "IT-23-AO-03" : "A - QUART NUS",
  "IT-23-AO-04" : "A - POLLEIN SAINT MARCEL",
  "IT-23-AO-05" : "A - BASSA VALTOURNENCHE CHATILLON",
  "IT-23-AO-23" : "A - TESTATA SAINT-BARTHELEMY",
  "IT-23-AO-24" : "A - VALTOURNENCHE",
  "IT-23-AO-26" : "A - PONTEY",
  "IT-23-AO-06" : "B - ALTA VALLE DI GRESSONEY",
  "IT-23-AO-07" : "B - MEDIA VAL D'AYAS BRUSSON",
  "IT-23-AO-08" : "B - MEDIA VALLE DEL LYS",
  "IT-23-AO-09" : "B - VALLI DI GRESSONEY, AYAS, CHAMPORCHER",
  "IT-23-AO-10" : "B - CHAMPDEPRAZ MONTE AVIC",
  "IT-23-AO-11" : "B - VALLE DI CHAMPORCHER",
  "IT-23-AO-25" : "B - TESTATA VAL D'AYAS SAINT-JACQUES",
  "IT-23-AO-12" : "C - VAL DI COGNE AYMAVILLES",
  "IT-23-AO-13" : "C - VALSAVARENCHE",
  "IT-23-AO-21" : "C - VAL DI RHEMES",
  "IT-23-AO-14" : "D - VAL FERRET",
  "IT-23-AO-15" : "D - VALLE DI LA THUILE",
  "IT-23-AO-16" : "D - VALGRISENCHE",
  "IT-23-AO-17" : "D - LA SALLE MORGEX",
  "IT-23-AO-18" : "D - GRAN SAN BERNARDO OLLOMONT",
  "IT-23-AO-19" : "D - BASSA E MEDIA VALPELLINE",
  "IT-23-AO-20" : "D - CERVINIA E ALTA VALPELLINE",
  "IT-23-AO-22" : "D - VAL VENY",
  "IT-25" : "Lombardia",
  "IT-25-BG-01" : "OROBIE CENTRALI",
  "IT-25-BG-02" : "PREALPI BERGAMASCHE",
  "IT-25-BS-01" : "ADAMELLO",
  "IT-25-BS-02" : "PREALPI BRESCIANE",
  "IT-25-LC-01" : "OROBIE OCCIDENTALI",
  "IT-25-SO-01" : "RETICHE OCCIDENTALI",
  "IT-25-SO-02" : "RETICHE CENTRALI",
  "IT-25-SO-03" : "RETICHE ORIENTALI",
  "IT-25-VA-01" : "PREALPI OCCIDENTALI",
  "IT-25-SO-LI" : "Livigno",
  "IT-32-BZ" : "Tyrol du Sud",
  "IT-32-BZ-01" : "Alpes du Val Münster",
  "IT-32-BZ-01-01" : "Northern Sesvenna Group",
  "IT-32-BZ-01-02" : "Southern Sesvenna Group",
  "IT-32-BZ-02" : "Langtaufers",
  "IT-32-BZ-02-01" : "Langtaufers",
  "IT-32-BZ-02-02" : "Planeil Mountains",
  "IT-32-BZ-03" : "Crête de Schnals",
  "IT-32-BZ-04" : "Alpes du sud du Stubai",
  "IT-32-BZ-04-01" : "Alpes du sud du Stubai",
  "IT-32-BZ-04-02" : "Ratschings",
  "IT-32-BZ-05" : "Alpes du sud du Zillertal et haut Tauern",
  "IT-32-BZ-05-01" : "Pfitsch",
  "IT-32-BZ-05-02" : "Southern Zillertal Alps",
  "IT-32-BZ-05-03" : "Upper Ahr Valley",
  "IT-32-BZ-06" : "Crête de Saldurn-Mastaun",
  "IT-32-BZ-07" : "Montagnes Texel",
  "IT-32-BZ-07-01" : "Upper Passeier Valley",
  "IT-32-BZ-07-02" : "Montagnes Texel",
  "IT-32-BZ-08" : "Alpes du Sarntal",
  "IT-32-BZ-08-01" : "Hirzer Range",
  "IT-32-BZ-08-02" : "Mount Saint Jakob Range",
  "IT-32-BZ-08-03" : "Southern Sarntal Alps",
  "IT-32-BZ-09" : "Montagnes occidentales du Pfunders",
  "IT-32-BZ-10" : "Montagnes orientales du Pfunders",
  "IT-32-BZ-11" : "Chaîne de Durreck",
  "IT-32-BZ-12" : "Montagnes occidentales du Rieserferner",
  "IT-32-BZ-13" : "Alpes occidentales du Defereggen",
  "IT-32-BZ-14" : "Chaîne de Ortler",
  "IT-32-BZ-15" : "Vallée d'Ulten",
  "IT-32-BZ-16" : "Montagnes orientales du Nonsberg",
  "IT-32-BZ-17" : "Dolomites du nord du Fiemme",
  "IT-32-BZ-18" : "Dolomites de Gröden",
  "IT-32-BZ-18-01" : "Lüsner Mountains",
  "IT-32-BZ-18-02" : "Dolomites de Gröden",
  "IT-32-BZ-19" : "Dolomites de Prags",
  "IT-32-BZ-20" : "Dolomites de Sexten",
  "IT-32-TN" : "Trentin",
  "IT-32-TN-01" : "Adamello - Presanella",
  "IT-32-TN-02" : "Adamello du sud",
  "IT-32-TN-03" : "Bondone and Stivo",
  "IT-32-TN-04" : "Brenta du nord - Peller",
  "IT-32-TN-05" : "Brenta du sud",
  "IT-32-TN-06" : "Folgaria - Laverone",
  "IT-32-TN-07" : "Lagorai du nord",
  "IT-32-TN-08" : "Lagorai du sud",
  "IT-32-TN-09" : "Latemar",
  "IT-32-TN-10" : "Marzola - Valsugana",
  "IT-32-TN-11" : "Paganella",
  "IT-32-TN-12" : "Préalpes",
  "IT-32-TN-13" : "Primiero - Pale di S. Martino",
  "IT-32-TN-14" : "Vallarsa",
  "IT-32-TN-15" : "Vallée de Cembra",
  "IT-32-TN-16" : "Vallée de Fassa",
  "IT-32-TN-17" : "Alpes occidentales du Nonsberg",
  "IT-32-TN-18" : "Vallée de Ledro",
  "IT-32-TN-19" : "Sole, Pejo et Rabbi",
  "IT-32-TN-20" : "Maddalene",
  "IT-32-TN-21" : "Pine' - Vallée de Mocheni",
  "IT-34" : "Veneto",
  "IT-34-BL-01" : "Agordino, Zoldano",
  "IT-34-BL-02" : "Ampezzo - Cadore",
  "IT-34-BL-03" : "Ansiei - Comelico",
  "IT-34-BL-04" : "Cadore",
  "IT-34-BL-05" : "Alpago - Cansiglio",
  "IT-34-BL-06" : "Vette Feltrine, Visentin, Grappa",
  "IT-34-VI-01" : "Altopiano, Pasubio, Carega",
  "IT-34-VR-01" : "Baldo, Lessini",
  "IT-36" : "Friuli Venezia Giulia",
  "IT-36-UD-01" : "ALPI CARNICHE OCCIDENTALI",
  "IT-36-UD-02" : "ALPI CARNICHE ORIENTALI",
  "IT-36-UD-03" : "ALPI GIULIE SENZA CANIN",
  "IT-36-UD-04" : "CANIN",
  "IT-36-UD-05" : "PREALPI GIULIE",
  "IT-36-PN-01" : "PREALPI CARNICHE OCCIDENTALI",
  "IT-36-PN-02" : "PRALPI CARNICHE ORIENTALI",
  "IT-42" : "Liguria",
  "IT-45" : "Emilia-Romagna",
  "IT-52" : "Toscana",
  "IT-57" : "Marche",
  "IT-57-AP-01" : "Monti Sibillini Ovest",
  "IT-57-AP-02" : "Monti Sibillini Est e Laga Marchigiana",
  "IT-57-MC-01" : "Appennino Fabrianese",
  "IT-57-PU-01" : "Appennino Pesarese",
  "IT-65" : "Abruzzo",
  "IT-77" : "Basilicata",
  "IT-82" : "Sicily",
  "LI" : "Liechtenstein",
  "NO" : "Norway",
  "NO-3003" : "Nordenskiöld Land",
  "NO-3009" : "Vest-Finnmark",
  "NO-3010" : "Lyngen",
  "NO-3011" : "Tromsø",
  "NO-3012" : "Sør-Troms",
  "NO-3013" : "Indre Troms",
  "NO-3014" : "Lofoten og Vesterålen",
  "NO-3015" : "Ofoten",
  "NO-3016" : "Salten",
  "NO-3017" : "Svartisen",
  "NO-3022" : "Trollheimen",
  "NO-3023" : "Romsdal",
  "NO-3024" : "Sunnmøre",
  "NO-3027" : "Indre Fjordane",
  "NO-3028" : "Jotunheimen",
  "NO-3029" : "Indre Sogn",
  "NO-3031" : "Voss",
  "NO-3032" : "Hallingdal",
  "NO-3034" : "Hardanger",
  "NO-3035" : "Vest-Telemark",
  "NO-3037" : "Heiane",
  "NZ" : "New Zealand",
  "PL" : "Poland",
  "PL-01" : "Karkonosze",
  "PL-02" : "Babia Góra",
  "PL-03" : "Bieszczady",
  "PL-12" : "Polish Tatras",
  "RO" : "Romania",
  "SE" : "Sweden",
  "SE-01" : "Västra Vindelfjällen",
  "SE-02" : "Abisko/Riksgränsfjällen",
  "SE-03" : "Södra Jämtlandsfjällen",
  "SE-07" : "Västra Härjedalsfjällen",
  "SE-08" : "Kebnekaisefjällen",
  "SE-09" : "Södra Lapplandsfjällen",
  "SI" : "Slovenia",
  "SI2" : "Southern and Western Julian Alps",
  "SI3" : "Central Julian Alps and Western Karavanke",
  "SI4" : "Kamnik-Savinja Alps and Eastern Karavanke",
  "SK" : "Slovakia",
  "SK-01" : "Vysoké Tatry - východ",
  "SK-02" : "Vysoké Tatry - západ",
  "SK-03" : "Západné Tatry",
  "SK-04" : "Nízke Tatry - východ",
  "SK-05" : "Nízke Tatry - západ",
  "SK-06" : "Veľká Fatra",
  "SK-07" : "Krivánska Malá Fatra",
  "SK-08" : "Lúčianska Malá Fatra",  
  "US" : "United States of America"
}